inchikey	inchi	smiles
XLYOFNOQVPJJNP-UHFFFAOYSA-N	InChI=1S/H2O/h1H2	[O-][H]
GVVPGTZRZFNKDS-JXMROGBWSA-N	InChI=1S/C10H20O7P2/c1-9(2)5-4-6-10(3)7-8-16-19(14,15)17-18(11,12)13/h5,7H,4,6,8H2,1-3H3,(H,14,15)(H2,11,12,13)/b10-7+	CC(C)=CCC\C(C)=C\COP([O-])(=O)OP([O-])([O-])=O
LBSJJNAMGVDGCU-UHFFFAOYSA-N	InChI=1S/C12H14O3/c1-8(2)3-4-9-7-10(12(14)15)5-6-11(9)13/h3,5-7,13H,4H2,1-2H3,(H,14,15)	CC(C)=CCc1cc(ccc1O)C([O-])=O
XFNJVJPLKCPIBV-UHFFFAOYSA-N	InChI=1S/C3H10N2/c4-2-1-3-5/h1-5H2	NCCCN
KIDHWZJUCRJVML-UHFFFAOYSA-N	InChI=1S/C4H12N2/c5-3-1-2-4-6/h1-6H2	NCCCCN
YFZBPSXRYCOKCW-UHFFFAOYSA-N	InChI=1S/C5H12N2O/c1-5(8)7-4-2-3-6/h2-4,6H2,1H3,(H,7,8)	CC(=O)NCCCN
CMBCFQGXXHOGEH-LSMBNOQWSA-N	InChI=1S/C47H82N2O22P2/c1-26(2)13-9-14-27(3)15-10-16-28(4)17-11-18-29(5)19-12-20-30(6)21-22-64-72(60,61)71-73(62,63)70-46-37(49-32(8)54)40(57)43(35(25-52)67-46)68-45-36(48-31(7)53)39(56)44(34(24-51)66-45)69-47-42(59)41(58)38(55)33(23-50)65-47/h13,15,17,19,30,33-47,50-52,55-59H,9-12,14,16,18,20-25H2,1-8H3,(H,48,53)(H,49,54)(H,60,61)(H,62,63)/b27-15+,28-17+,29-19+/t30?,33-,34-,35-,36-,37-,38-,39-,40-,41+,42+,43-,44-,45+,46-,47+/m1/s1	CC(CCOP([O-])(=O)OP([O-])(=O)O[C@H]1O[C@H](CO)[C@@H](O[C@@H]2O[C@H](CO)[C@@H](O[C@@H]3O[C@H](CO)[C@@H](O)[C@H](O)[C@@H]3O)[C@H](O)[C@H]2NC(C)=O)[C@H](O)[C@H]1NC(C)=O)CC\C=C(/C)CC\C=C(/C)CC\C=C(/C)CCC=C(C)C
AUFGTPPARQZWDO-YPMHNXCESA-N	InChI=1S/C20H23N7O7/c21-20-25-16-15(18(32)26-20)23-11(7-22-16)8-27(9-28)12-3-1-10(2-4-12)17(31)24-13(19(33)34)5-6-14(29)30/h1-4,9,11,13,23H,5-8H2,(H,24,31)(H,29,30)(H,33,34)(H4,21,22,25,26,32)/t11-,13+/m1/s1	Nc1nc2NC[C@H](CN(C=O)c3ccc(cc3)C(=O)N[C@@H](CCC([O-])=O)C([O-])=O)Nc2c(=O)[nH]1
ZAOGJXDWOQXFBW-UHFFFAOYSA-N	InChI=1S/C24H30N8O9/c25-24-31-19-18(21(37)32-24)28-13(10-27-19)9-26-12-3-1-11(2-4-12)20(36)30-15(23(40)41)5-7-16(33)29-14(22(38)39)6-8-17(34)35/h1-4,13-15,26,28H,5-10H2,(H,29,33)(H,30,36)(H,34,35)(H,38,39)(H,40,41)(H4,25,27,31,32,37)	Nc1nc2NCC(CNc3ccc(cc3)C(=O)NC(CCC(=O)NC(CCC(O)=O)C(O)=O)C(O)=O)Nc2c(=O)[nH]1
RXWVHRYZTWZATH-XSLAGTTESA-N	InChI=1S/C29H37N9O12/c30-29-37-23-22(25(44)38-29)33-15(12-32-23)11-31-14-3-1-13(2-4-14)24(43)36-18(28(49)50)6-9-20(40)34-16(26(45)46)5-8-19(39)35-17(27(47)48)7-10-21(41)42/h1-4,15-18,31,33H,5-12H2,(H,34,40)(H,35,39)(H,36,43)(H,41,42)(H,45,46)(H,47,48)(H,49,50)(H4,30,32,37,38,44)/t15-,16-,17-,18-/m0/s1	Nc1nc2NC[C@H](CNc3ccc(cc3)C(=O)N[C@@H](CCC(=O)N[C@@H](CCC(=O)N[C@@H](CCC([O-])=O)C([O-])=O)C([O-])=O)C([O-])=O)Nc2c(=O)[nH]1
QBRZRKKUHJLMCY-HRUJLXCPSA-N	InChI=1S/C41H72N2O17P2/c1-25(2)13-9-14-26(3)15-10-16-27(4)17-11-18-28(5)19-12-20-29(6)21-22-55-61(51,52)60-62(53,54)59-41-35(43-31(8)47)38(50)39(33(24-45)57-41)58-40-34(42-30(7)46)37(49)36(48)32(23-44)56-40/h13,15,17,19,29,32-41,44-45,48-50H,9-12,14,16,18,20-24H2,1-8H3,(H,42,46)(H,43,47)(H,51,52)(H,53,54)/b26-15+,27-17+,28-19-/t29?,32-,33-,34-,35-,36-,37-,38-,39-,40+,41-/m1/s1	CC(CCOP([O-])(=O)OP([O-])(=O)O[C@H]1O[C@H](CO)[C@@H](O[C@@H]2O[C@H](CO)[C@@H](O)[C@H](O)[C@H]2NC(C)=O)[C@H](O)[C@H]1NC(C)=O)CC\C=C(\C)CC\C=C(/C)CC\C=C(/C)CCC=C(C)C
NSVKTXNITHYTDN-QQFUYBAXSA-N	InChI=1S/C33H59NO12P2/c1-23(2)12-8-13-24(3)14-9-15-25(4)16-10-17-26(5)18-11-19-27(6)20-21-43-47(39,40)46-48(41,42)45-33-30(34-28(7)36)32(38)31(37)29(22-35)44-33/h12,14,16,18,27,29-33,35,37-38H,8-11,13,15,17,19-22H2,1-7H3,(H,34,36)(H,39,40)(H,41,42)/b24-14+,25-16+,26-18-/t27?,29-,30-,31-,32-,33-/m1/s1	CC(CCOP([O-])(=O)OP([O-])(=O)O[C@H]1O[C@H](CO)[C@@H](O)[C@H](O)[C@H]1NC(C)=O)CC\C=C(\C)CC\C=C(/C)CC\C=C(/C)CCC=C(C)C
AGLXCEGQRIYVRV-DVDHLLHCSA-N	InChI=1S/C31H55O9P/c1-22(2)11-7-12-23(3)13-8-14-24(4)15-9-16-25(5)17-10-18-26(6)19-20-38-41(36,37)40-31-30(35)29(34)28(33)27(21-32)39-31/h11,13,15,17,26-35H,7-10,12,14,16,18-21H2,1-6H3,(H,36,37)/b23-13+,24-15+,25-17-/t26?,27-,28-,29+,30-,31+/m1/s1	CC(CCOP([O-])(=O)O[C@@H]1O[C@H](CO)[C@@H](O)[C@H](O)[C@H]1O)CC\C=C(\C)CC\C=C(/C)CC\C=C(/C)CCC=C(C)C
WVEYWCGUSMKKMF-LADHFWMSSA-N	InChI=1S/C24H29N4O15P/c1-10(21(35)25-14(23(37)38)4-5-18(32)33)43-44(40,41)42-9-17(31)19(34)16(30)8-28-15-7-12(29)3-2-11(15)6-13-20(28)26-24(39)27-22(13)36/h2-3,6-7,10,14,16-17,19,29-31,34H,4-5,8-9H2,1H3,(H,25,35)(H,32,33)(H,37,38)(H,40,41)(H,27,36,39)/t10-,14-,16-,17+,19-/m0/s1	C[C@H](OP([O-])(=O)OC[C@@H](O)[C@@H](O)[C@@H](O)Cn1c2cc(O)ccc2cc2c([O-])nc(=O)nc12)C([O-])=[NH+][C@@H](CCC([O-])=O)C([O-])=O
LTYOQGRJFJAKNA-DVVLENMVSA-N	InChI=1S/C24H38N7O19P3S/c1-24(2,19(37)22(38)27-4-3-13(32)26-5-6-54-15(35)7-14(33)34)9-47-53(44,45)50-52(42,43)46-8-12-18(49-51(39,40)41)17(36)23(48-12)31-11-30-16-20(25)28-10-29-21(16)31/h10-12,17-19,23,36-37H,3-9H2,1-2H3,(H,26,32)(H,27,38)(H,33,34)(H,42,43)(H,44,45)(H2,25,28,29)(H2,39,40,41)/t12-,17-,18-,19+,23-/m1/s1	CC(C)(COP([O-])(=O)OP([O-])(=O)OC[C@H]1O[C@H]([C@H](O)[C@@H]1OP([O-])([O-])=O)n1cnc2c(N)ncnc12)[C@@H](O)C(=O)NCCC(=O)NCCSC(=O)CC([O-])=O
ZMDAIZCVRFGCSN-FJVAVWNESA-N	InChI=1S/C30H37N15O19P2/c31-28-37-19-10(22(51)40-28)34-4-43(19)25-14(48)13(47)8(61-25)2-58-65(54,55)64-18-9(62-27(16(18)50)45-6-36-12-21(45)39-30(33)42-24(12)53)3-59-66(56,57)63-17-7(1-46)60-26(15(17)49)44-5-35-11-20(44)38-29(32)41-23(11)52/h4-9,13-18,25-27,46-50H,1-3H2,(H,54,55)(H,56,57)(H3,31,37,40,51)(H3,32,38,41,52)(H3,33,39,42,53)/t7-,8-,9-,13-,14-,15-,16-,17-,18-,25-,26-,27-/m1/s1	Nc1nc2n(cnc2c(=O)[nH]1)[C@@H]1O[C@H](COP(O)(=O)O[C@@H]2[C@@H](COP(O)(=O)O[C@@H]3[C@@H](CO)O[C@H]([C@@H]3O)n3cnc4c3nc(N)[nH]c4=O)O[C@H]([C@@H]2O)n2cnc3c2nc(N)[nH]c3=O)[C@@H](O)[C@H]1O
PRARWMPSYXQMIX-ADKAHSJRSA-N	InChI=1S/C29H33N9O12/c30-29-37-23-22(26(46)38-29)33-15(12-32-23)11-31-14-3-1-13(2-4-14)24(44)35-17(27(47)48)5-8-19(39)34-16(6-9-20(40)41)25(45)36-18(28(49)50)7-10-21(42)43/h1-4,12,16-18,31H,5-11H2,(H,34,39)(H,35,44)(H,36,45)(H,40,41)(H,42,43)(H,47,48)(H,49,50)(H3,30,32,37,38,46)/t16?,17-,18?/m0/s1	Nc1nc2ncc(CNc3ccc(cc3)C(=O)N[C@@H](CCC(=O)NC(CCC(O)=O)C(=O)NC(CCC(O)=O)C(O)=O)C(O)=O)nc2c(=O)[nH]1
HFNOFNDLBTVECO-UHFFFAOYSA-N	InChI=1S/C18H18N4O6S4/c1-3-21-13-7-5-11(31(23,24)25)9-15(13)29-17(21)19-20-18-22(4-2)14-8-6-12(32(26,27)28)10-16(14)30-18/h5-10H,3-4H2,1-2H3,(H,23,24,25)(H,26,27,28)/q+1	CC[N+]1\C(Sc2cc(ccc12)S([O-])(=O)=O)=N/N=c1\sc2cc(ccc2n1CC)S([O-])(=O)=O
CGJMROBVSBIBKP-UHFFFAOYSA-N	InChI=1S/C3H5NO3/c4-2(5)1-3(6)7/h1H2,(H2,4,5)(H,6,7)	NC(=O)CC(O)=O
DZQLQEYLEYWJIB-UHFFFAOYSA-N	InChI=1S/C4H9NO/c5-3-1-2-4-6/h4H,1-3,5H2	NCCCC=O
GVVPGTZRZFNKDS-YFHOEESVSA-N	InChI=1S/C10H20O7P2/c1-9(2)5-4-6-10(3)7-8-16-19(14,15)17-18(11,12)13/h5,7H,4,6,8H2,1-3H3,(H,14,15)(H2,11,12,13)/b10-7-	CC(C)=CCC\C(C)=C/COP(O)(=O)OP(O)(O)=O
LCLHHZYHLXDRQG-MKJFYJHKSA-N	InChI=1S/C18H26O19/c19-1-2(20)10(13(26)27)36-17(6(1)24)35-9-4(22)7(25)18(37-12(9)15(30)31)34-8-3(21)5(23)16(32)33-11(8)14(28)29/h1-12,16-25,32H,(H,26,27)(H,28,29)(H,30,31)/t1-,2+,3+,4+,5+,6+,7+,8+,9+,10-,11-,12-,16-,17-,18-/m0/s1	O[C@H]1O[C@@H]([C@H](O[C@H]2O[C@@H]([C@H](O[C@H]3O[C@@H]([C@H](O)[C@H](O)[C@H]3O)C([O-])=O)[C@H](O)[C@H]2O)C([O-])=O)[C@H](O)[C@H]1O)C([O-])=O
NKBASRXWGAGQDP-UHFFFAOYSA-N	InChI=1S/C7H5ClO3/c8-4-1-2-6(9)5(3-4)7(10)11/h1-3,9H,(H,10,11)	Oc1ccc(Cl)cc1C([O-])=O
RTAGLZBJCCVJET-UQTMIEBXSA-N	InChI=1S/C30H40N15O25P5/c31-22-13-25(37-4-34-22)43(7-40-13)28-19(49)16(46)10(64-28)1-61-72(53,54)67-20-17(47)11(65-29(20)44-8-41-14-23(32)35-5-38-26(14)44)2-62-73(55,56)68-21-18(48)12(3-63-74(57,58)70-75(59,60)69-71(50,51)52)66-30(21)45-9-42-15-24(33)36-6-39-27(15)45/h4-12,16-21,28-30,46-49H,1-3H2,(H,53,54)(H,55,56)(H,57,58)(H,59,60)(H2,31,34,37)(H2,32,35,38)(H2,33,36,39)(H2,50,51,52)/t10-,11-,12-,16-,17-,18-,19-,20-,21-,28-,29-,30-/m1/s1	Nc1ncnc2n(cnc12)[C@@H]1O[C@H](COP(O)(=O)O[C@@H]2[C@H](O)[C@@H](COP(O)(=O)O[C@@H]3[C@H](O)[C@@H](COP(O)(=O)OP(O)(=O)OP(O)(O)=O)O[C@H]3n3cnc4c(N)ncnc34)O[C@H]2n2cnc3c(N)ncnc23)[C@@H](O)[C@H]1O
FQMXJODZIXFTHO-AJHHDGCXSA-N	InChI=1S/C27H49O24P/c1-7-12(32)14(34)18(38)25(44-7)49-23-22(51-52(41,42)50-9(3-28)4-29)21(48-26-19(39)15(35)13(33)10(5-30)45-26)11(6-31)46-27(23)47-20-8(2)43-24(40)17(37)16(20)36/h7-40H,3-6H2,1-2H3,(H,41,42)/t7-,8-,10+,11+,12-,13+,14+,15-,16-,17+,18+,19+,20-,21-,22-,23+,24-,25-,26-,27-/m0/s1	[H]O[C@H]1[C@H](O)[C@@H](O)[C@H](O[C@H]2[C@@H](CO)O[C@@H](O[C@H]3[C@H](C)O[C@H](O)[C@H](O)[C@@H]3O)[C@H](O[C@@H]3O[C@@H](C)[C@H](O)[C@@H](O)[C@H]3O)[C@H]2OP(O)(=O)OC(CO)CO)O[C@@H]1CO
WUURCCCLYPVEDU-DNIZJRTKSA-N	InChI=1S/C30H41N6O22P3/c1-13-7-34(28(41)31-25(13)38)22-4-16(37)19(54-22)10-52-60(47,48)58-18-6-24(36-9-15(3)27(40)33-30(36)43)56-21(18)12-53-61(49,50)57-17-5-23(55-20(17)11-51-59(44,45)46)35-8-14(2)26(39)32-29(35)42/h7-9,16-24,37H,4-6,10-12H2,1-3H3,(H,47,48)(H,49,50)(H,31,38,41)(H,32,39,42)(H,33,40,43)(H2,44,45,46)/t16-,17-,18-,19+,20+,21+,22+,23+,24+/m0/s1	Cc1cn([C@H]2C[C@H](O)[C@@H](COP([O-])(=O)O[C@H]3C[C@@H](O[C@@H]3COP([O-])(=O)O[C@H]3C[C@@H](O[C@@H]3COP([O-])([O-])=O)n3cc(C)c(=O)[nH]c3=O)n3cc(C)c(=O)[nH]c3=O)O2)c(=O)[nH]c1=O
SLXKOJJOQWFEFD-UHFFFAOYSA-N	InChI=1S/C6H13NO2/c7-5-3-1-2-4-6(8)9/h1-5,7H2,(H,8,9)	[H]NCCCCCC([O-])=O
CUJKPTPMTCNOKC-UQTMIEBXSA-N	InChI=1S/C30H37N15O16P2/c31-22-13-25(37-4-34-22)43(7-40-13)28-17(48)16(47)11(58-28)2-55-62(51,52)61-21-12(59-30(19(21)50)45-9-42-15-24(33)36-6-39-27(15)45)3-56-63(53,54)60-20-10(1-46)57-29(18(20)49)44-8-41-14-23(32)35-5-38-26(14)44/h4-12,16-21,28-30,46-50H,1-3H2,(H,51,52)(H,53,54)(H2,31,34,37)(H2,32,35,38)(H2,33,36,39)/t10-,11-,12-,16-,17-,18-,19-,20-,21-,28-,29-,30-/m1/s1	Nc1ncnc2n(cnc12)[C@@H]1O[C@H](COP(O)(=O)O[C@@H]2[C@@H](COP(O)(=O)O[C@@H]3[C@@H](CO)O[C@H]([C@@H]3O)n3cnc4c(N)ncnc34)O[C@H]([C@@H]2O)n2cnc3c(N)ncnc23)[C@@H](O)[C@H]1O
VJDOAZKNBQCAGE-LMVFSUKVSA-N	InChI=1S/C5H13O8P/c6-1-3(7)5(9)4(8)2-13-14(10,11)12/h3-9H,1-2H2,(H2,10,11,12)/t3-,4+,5-/m0/s1	OC[C@H](O)[C@H](O)[C@H](O)COP([O-])([O-])=O
AEMRFAOFKBGASW-UHFFFAOYSA-N	InChI=1S/C2H4O3/c3-1-2(4)5/h3H,1H2,(H,4,5)	OCC([O-])=O
WHUUTDBJXJRKMK-GSVOUGTGSA-N	InChI=1S/C5H9NO4/c6-3(5(9)10)1-2-4(7)8/h3H,1-2,6H2,(H,7,8)(H,9,10)/t3-/m1/s1	[NH3+][C@H](CCC([O-])=O)C([O-])=O
UNXRWKVEANCORM-UHFFFAOYSA-N	InChI=1S/H5O10P3/c1-11(2,3)9-13(7,8)10-12(4,5)6/h(H,7,8)(H2,1,2,3)(H2,4,5,6)	[O-]P([O-])(=O)OP([O-])(=O)OP([O-])([O-])=O
RILHUWWTCSDPAN-PHDIDXHHSA-N	InChI=1S/C8H14O5/c1-5(9)3-8(12)13-6(2)4-7(10)11/h5-6,9H,3-4H2,1-2H3,(H,10,11)/t5-,6-/m1/s1	C[C@@H](O)CC(=O)O[C@H](C)CC([O-])=O
BJEPYKJPYRNKOW-UHFFFAOYSA-N	InChI=1S/C4H6O5/c5-2(4(8)9)1-3(6)7/h2,5H,1H2,(H,6,7)(H,8,9)	OC(CC([O-])=O)C([O-])=O
HVRNKDVLFAVCJF-VJANTYMQSA-N	InChI=1S/C30H39N9O12/c1-39-16(13-33-24-23(39)26(45)38-30(31)37-24)12-32-15-4-2-14(3-5-15)25(44)36-19(29(50)51)7-10-21(41)34-17(27(46)47)6-9-20(40)35-18(28(48)49)8-11-22(42)43/h2-5,16-19,32H,6-13H2,1H3,(H,34,41)(H,35,40)(H,36,44)(H,42,43)(H,46,47)(H,48,49)(H,50,51)(H4,31,33,37,38,45)/t16-,17-,18-,19-/m0/s1	CN1[C@@H](CNc2ccc(cc2)C(=O)N[C@@H](CCC(=O)N[C@@H](CCC(=O)N[C@@H](CCC(O)=O)C(O)=O)C(O)=O)C(O)=O)CNc2nc(N)[nH]c(=O)c12
HKIMBCGCVPYUTJ-NTUHNPAUSA-N	InChI=1S/C17H22O3/c1-12(2)5-4-6-13(3)7-8-14-11-15(17(19)20)9-10-16(14)18/h5,7,9-11,18H,4,6,8H2,1-3H3,(H,19,20)/b13-7+	CC(C)=CCC\C(C)=C\Cc1cc(ccc1O)C([O-])=O
SQVRNKJHWKZAKO-YRMXFSIDSA-N	InChI=1S/C11H19NO9/c1-4(14)12-7-5(15)2-11(20,10(18)19)21-9(7)8(17)6(16)3-13/h5-9,13,15-17,20H,2-3H2,1H3,(H,12,14)(H,18,19)/t5-,6+,7+,8+,9+,11+/m0/s1	[H]O[C@@]1(C[C@H](O)[C@@H](NC(C)=O)[C@@H](O1)[C@H](O)[C@H](O)CO)C(O)=O
MSWZFWKMSRAUBD-QZABAPFNSA-N	InChI=1S/C6H13NO5/c7-3-5(10)4(9)2(1-8)12-6(3)11/h2-6,8-11H,1,7H2/t2-,3-,4-,5-,6-/m1/s1	[NH3+][C@H]1[C@H](O)O[C@H](CO)[C@@H](O)[C@@H]1O
CMBCFQGXXHOGEH-GRUWKLFASA-N	InChI=1S/C47H82N2O22P2/c1-26(2)13-9-14-27(3)15-10-16-28(4)17-11-18-29(5)19-12-20-30(6)21-22-64-72(60,61)71-73(62,63)70-46-37(49-32(8)54)40(57)43(35(25-52)67-46)68-45-36(48-31(7)53)39(56)44(34(24-51)66-45)69-47-42(59)41(58)38(55)33(23-50)65-47/h13,15,17,19,30,33-47,50-52,55-59H,9-12,14,16,18,20-25H2,1-8H3,(H,48,53)(H,49,54)(H,60,61)(H,62,63)/b27-15+,28-17+,29-19-/t30?,33-,34-,35-,36-,37-,38-,39-,40-,41+,42+,43-,44-,45+,46-,47+/m1/s1	CC(CCOP([O-])(=O)OP([O-])(=O)O[C@H]1O[C@H](CO)[C@@H](O[C@@H]2O[C@H](CO)[C@@H](O[C@@H]3O[C@H](CO)[C@@H](O)[C@H](O)[C@@H]3O)[C@H](O)[C@H]2NC(C)=O)[C@H](O)[C@H]1NC(C)=O)CC\C=C(\C)CC\C=C(/C)CC\C=C(/C)CCC=C(C)C
NRAUADCLPJTGSF-VLSXYIQESA-N	InChI=1S/C19H34N8O8/c20-3-1-2-7(21)4-10(30)24-13-14(31)15(35-18(22)33)9(6-28)34-17(13)27-19-25-11-8(29)5-23-16(32)12(11)26-19/h7-9,11-15,17,28-29,31H,1-6,20-21H2,(H2,22,33)(H,23,32)(H,24,30)(H2,25,26,27)/t7-,8+,9+,11+,12-,13+,14-,15-,17+/m0/s1	NC(=O)O[C@@H]1[C@@H](O)[C@@H](NC(=O)C[C@@H]([NH3+])CCC[NH3+])[C@@H](O[C@@H]1CO)\[NH+]=C1/N[C@H]2[C@H](N1)C(=O)NC[C@H]2O
JMVSBFJBMXQNJW-PSTDWBAXSA-N	InChI=1S/C25H44O7P2/c1-21(2)11-7-12-22(3)13-8-14-23(4)15-9-16-24(5)17-10-18-25(6)19-20-31-34(29,30)32-33(26,27)28/h11,13,15,17,19H,7-10,12,14,16,18,20H2,1-6H3,(H,29,30)(H2,26,27,28)/b22-13+,23-15+,24-17-,25-19-	CC(C)=CCC\C(C)=C\CC\C(C)=C\CC\C(C)=C/CC\C(C)=C/COP(O)(=O)OP(O)(O)=O
TVOIBJKTCGVLHU-WQCXAXTQSA-N	InChI=1S/C30H53O29P/c31-1-6-11(35)17(41)25(26(46)51-6)59-30-21(45)24(15(39)9(4-34)54-30)58-29-20(44)23(14(38)8(3-33)53-29)57-28-19(43)22(13(37)7(2-32)52-28)56-27-18(42)16(40)12(36)10(55-27)5-50-60(47,48)49/h6-46H,1-5H2,(H2,47,48,49)/t6-,7-,8-,9-,10-,11-,12-,13-,14-,15-,16+,17+,18+,19+,20+,21+,22+,23+,24+,25+,26?,27-,28-,29-,30-/m1/s1	OC[C@H]1OC(O)[C@@H](O[C@H]2O[C@H](CO)[C@@H](O)[C@H](O[C@H]3O[C@H](CO)[C@@H](O)[C@H](O[C@H]4O[C@H](CO)[C@@H](O)[C@H](O[C@H]5O[C@H](COP([O-])([O-])=O)[C@@H](O)[C@H](O)[C@@H]5O)[C@@H]4O)[C@@H]3O)[C@@H]2O)[C@@H](O)[C@@H]1O
AEMOLEFTQBMNLQ-SYJWYVCOSA-N	InChI=1S/C6H10O7/c7-1-2(8)4(5(10)11)13-6(12)3(1)9/h1-4,6-9,12H,(H,10,11)/t1-,2-,3-,4-,6+/m0/s1	O[C@@H]1O[C@@H]([C@@H](O)[C@H](O)[C@@H]1O)C([O-])=O
AJUBASUIRHJEOK-AQLSXGMYSA-N	InChI=1S/C19H36N8O9/c20-3-1-2-7(22)4-10(30)24-13-14(31)15(36-18(23)34)9(6-28)35-16(13)27-19-25-11(8(29)5-21)12(26-19)17(32)33/h7-9,11-16,28-29,31H,1-6,20-22H2,(H2,23,34)(H,24,30)(H,32,33)(H2,25,26,27)/t7-,8+,9+,11+,12-,13+,14-,15-,16+/m0/s1	NC(=O)O[C@@H]1[C@@H](O)[C@@H](NC(=O)C[C@@H]([NH3+])CCC[NH3+])[C@@H](O[C@@H]1CO)\[NH+]=C1/N[C@H]([C@H](O)C[NH3+])[C@H](N1)C([O-])=O
WHUUTDBJXJRKMK-VKHMYHEASA-N	InChI=1S/C5H9NO4/c6-3(5(9)10)1-2-4(7)8/h3H,1-2,6H2,(H,7,8)(H,9,10)/t3-/m0/s1	[H]N[C@@H](CCC(O)=O)C(O)=O
KZKAYEGOIJEWQB-UHFFFAOYSA-N	InChI=1S/C10H24N2.C3H6Br2/c1-11(2)9-7-5-6-8-10-12(3)4;4-2-1-3-5/h5-10H2,1-4H3;1-3H2	BrCCCBr.CN(C)CCCCCCN(C)C
PCXDJQZLDDHMGX-UHFFFAOYSA-N	InChI=1S/C3H7NO/c4-2-1-3-5/h3H,1-2,4H2	NCCC=O
LJORHONFMDUUHP-YHCGEDBISA-N	InChI=1S/C14H23NO12/c1-3(17)15-5-10(6(18)4(2-16)25-13(5)24)26-14-9(21)7(19)8(20)11(27-14)12(22)23/h4-11,13-14,16,18-21,24H,2H2,1H3,(H,15,17)(H,22,23)/t4-,5-,6+,7+,8+,9-,10-,11+,13-,14-/m1/s1	CC(=O)N[C@H]1[C@H](O)O[C@H](CO)[C@H](O)[C@@H]1O[C@@H]1O[C@@H]([C@@H](O)[C@H](O)[C@H]1O)C([O-])=O
UEASZQUTJQWRPJ-BVBHFADKSA-N	InChI=1S/C30H37N9O13/c31-30-37-24-23(26(46)38-30)33-15(11-32-24)12-39(13-40)16-3-1-14(2-4-16)25(45)36-19(29(51)52)6-9-21(42)34-17(27(47)48)5-8-20(41)35-18(28(49)50)7-10-22(43)44/h1-4,13,15,17-19,33H,5-12H2,(H,34,42)(H,35,41)(H,36,45)(H,43,44)(H,47,48)(H,49,50)(H,51,52)(H4,31,32,37,38,46)/t15-,17+,18+,19+/m1/s1	Nc1nc2NC[C@H](CN(C=O)c3ccc(cc3)C(=O)N[C@@H](CCC(=O)N[C@@H](CCC(=O)N[C@@H](CCC([O-])=O)C([O-])=O)C([O-])=O)C([O-])=O)Nc2c(=O)[nH]1
AEMOLEFTQBMNLQ-BKBMJHBISA-N	InChI=1S/C6H10O7/c7-1-2(8)4(5(10)11)13-6(12)3(1)9/h1-4,6-9,12H,(H,10,11)/t1-,2+,3+,4-,6-/m0/s1	[H]O[C@@H]1[C@H](O)[C@@H](O)[C@@H](O)O[C@@H]1C(O)=O
HPTRHRAOOWNICW-WTIBDHCWSA-N	InChI=1S/C14H24N6O8/c15-6(11(24)20-8(13(27)28)5-10(22)23)4-9(21)19-7(12(25)26)2-1-3-18-14(16)17/h6-8H,1-5,15H2,(H,19,21)(H,20,24)(H,22,23)(H,25,26)(H,27,28)(H4,16,17,18)/t6?,7-,8?/m0/s1	[H]NC(CC(=O)N[C@@H](CCCNC(N)=N)C(O)=O)C(=O)NC(CC(O)=O)C(O)=O
MXGLYEVGJRXBTP-QOLULZROSA-N	InChI=1S/C25H46O7P2/c1-21(2)11-7-12-22(3)13-8-14-23(4)15-9-16-24(5)17-10-18-25(6)19-20-31-34(29,30)32-33(26,27)28/h11,13,15,17,25H,7-10,12,14,16,18-20H2,1-6H3,(H,29,30)(H2,26,27,28)/b22-13+,23-15+,24-17-	CC(CCOP(O)(=O)OP(O)(O)=O)CC\C=C(\C)CC\C=C(/C)CC\C=C(/C)CCC=C(C)C
AWUCVROLDVIAJX-UHFFFAOYSA-N	InChI=1S/C3H9O6P/c4-1-3(5)2-9-10(6,7)8/h3-5H,1-2H2,(H2,6,7,8)	OCC(O)COP([O-])([O-])=O
GMRWGQCZJGVHKL-UHFFFAOYSA-N	InChI=1S/C8H23N5.C3H5ClO/c9-1-3-11-5-7-13-8-6-12-4-2-10;4-1-3-2-5-3/h11-13H,1-10H2;3H,1-2H2	ClCC1CO1.NCCNCCNCCNCCN
OWDWWEADEGAIKR-KVTTWSSHSA-N	InChI=1S/C48H84O47P2/c49-1-9-17(54)26(63)33(70)42(83-9)92-40-31(68)23(60)14(89-48(40)95-97(77,78)80-7-15-21(58)25(62)32(69)41(74)82-15)6-79-46-38(29(66)19(56)11(3-51)86-46)93-47-39(30(67)20(57)12(4-52)87-47)91-44-36(73)37(24(61)13(5-53)84-44)90-43-34(71)28(65)22(59)16(88-43)8-81-96(75,76)94-45-35(72)27(64)18(55)10(2-50)85-45/h9-74H,1-8H2,(H,75,76)(H,77,78)/t9-,10-,11-,12-,13-,14-,15-,16-,17-,18-,19-,20-,21-,22-,23-,24-,25+,26+,27+,28+,29+,30+,31+,32+,33+,34+,35+,36+,37+,38+,39+,40+,41+,42-,43-,44-,45-,46+,47-,48-/m1/s1	OC[C@H]1O[C@H](O[C@H]2[C@@H](O)[C@H](O)[C@@H](CO[C@H]3O[C@H](CO)[C@@H](O)[C@H](O)[C@@H]3O[C@H]3O[C@H](CO)[C@@H](O)[C@H](O)[C@@H]3O[C@H]3O[C@H](CO)[C@@H](O)[C@H](O[C@H]4O[C@H](COP(O)(=O)O[C@H]5O[C@H](CO)[C@@H](O)[C@H](O)[C@@H]5O)[C@@H](O)[C@H](O)[C@@H]4O)[C@@H]3O)O[C@@H]2OP(O)(=O)OC[C@H]2O[C@H](O)[C@@H](O)[C@@H](O)[C@@H]2O)[C@@H](O)[C@@H](O)[C@@H]1O
XPSGESXVBSQZPL-SRVKXCTJSA-N	InChI=1S/C18H38N12O4/c19-10(4-1-7-26-16(20)21)13(31)29-11(5-2-8-27-17(22)23)14(32)30-12(15(33)34)6-3-9-28-18(24)25/h10-12H,1-9,19H2,(H,29,31)(H,30,32)(H,33,34)(H4,20,21,26)(H4,22,23,27)(H4,24,25,28)/t10-,11-,12-/m0/s1	N[C@@H](CCCNC(N)=N)C(=O)N[C@@H](CCCNC(N)=N)C(=O)N[C@@H](CCCNC(N)=N)C(O)=O
OINNEUNVOZHBOX-MVRGCTHJSA-N	InChI=1S/C20H36O7P2/c1-17(2)9-6-10-18(3)11-7-12-19(4)13-8-14-20(5)15-16-26-29(24,25)27-28(21,22)23/h9,11,13,15H,6-8,10,12,14,16H2,1-5H3,(H,24,25)(H2,21,22,23)/b18-11+,19-13-,20-15-	CC(C)=CCC\C(C)=C\CC\C(C)=C/CC\C(C)=C/COP(O)(=O)OP(O)(O)=O
NIXOWILDQLNWCW-UHFFFAOYSA-N	InChI=1S/C3H4O2/c1-2-3(4)5/h2H,1H2,(H,4,5)	OC(=O)C=C
KPVQNXLUPNWQHM-UHFFFAOYSA-N	InChI=1S/C22H28N6O14P2/c1-10(29)11-3-2-4-27(5-11)21-17(32)15(30)12(40-21)6-38-43(34,35)42-44(36,37)39-7-13-16(31)18(33)22(41-13)28-9-26-14-19(23)24-8-25-20(14)28/h2-5,8-9,12-13,15-18,21-22,30-33H,6-7H2,1H3,(H3-,23,24,25,34,35,36,37)	CC(=O)c1ccc[n+](c1)C1OC(COP([O-])(=O)OP([O-])(=O)OCC2OC(C(O)C2O)n2cnc3c(N)ncnc23)C(O)C1O
DWHDSRHHYMSXSP-UHFFFAOYSA-N	InChI=1S/C13H16O4/c1-8(2)4-5-9-6-10(13(15)16)7-11(17-3)12(9)14/h4,6-7,14H,5H2,1-3H3,(H,15,16)	[H]CC(C)=CCc1cc(cc(OC)c1O)C(O)=O
RWSXRVCMGQZWBV-WDSKDSINSA-N	InChI=1S/C10H17N3O6S/c11-5(10(18)19)1-2-7(14)13-6(4-20)9(17)12-3-8(15)16/h5-6,20H,1-4,11H2,(H,12,17)(H,13,14)(H,15,16)(H,18,19)/t5-,6-/m0/s1	N[C@@H](CCC(=O)N[C@@H](CS)C(=O)NCC(O)=O)C(O)=O
CGZITCMVSSNQPE-NAKRPEOUSA-N	InChI=1S/C18H29N5O10S2/c19-8(17(30)31)1-3-12(24)22-11(7-35)16(29)23-9(18(32)33)2-4-13(25)21-10(6-34)15(28)20-5-14(26)27/h8-11,34-35H,1-7,19H2,(H,20,28)(H,21,25)(H,22,24)(H,23,29)(H,26,27)(H,30,31)(H,32,33)/t8-,9-,10-,11-/m0/s1	N[C@@H](CCC(=O)N[C@@H](CS)C(=O)N[C@@H](CCC(=O)N[C@@H](CS)C(=O)NCC(O)=O)C(O)=O)C(O)=O
OFOBLEOULBTSOW-UHFFFAOYSA-N	InChI=1S/C3H4O4/c4-2(5)1-3(6)7/h1H2,(H,4,5)(H,6,7)	[O-]C(=O)CC([O-])=O
GYBNOAFGEKAZTA-QOLULZROSA-N	InChI=1S/C25H45O4P/c1-21(2)11-7-12-22(3)13-8-14-23(4)15-9-16-24(5)17-10-18-25(6)19-20-29-30(26,27)28/h11,13,15,17,25H,7-10,12,14,16,18-20H2,1-6H3,(H2,26,27,28)/b22-13+,23-15+,24-17-	CC(CCOP(O)(O)=O)CC\C=C(\C)CC\C=C(/C)CC\C=C(/C)CCC=C(C)C
FFOWJDCTFSWUMJ-JXMROGBWSA-N	InChI=1S/C10H19O4P/c1-9(2)5-4-6-10(3)7-8-14-15(11,12)13/h5,7H,4,6,8H2,1-3H3,(H2,11,12,13)/b10-7+	CC(C)=CCC\C(C)=C\COP(O)(O)=O
LJKKEBYAXYCTNF-GIXQJHCPSA-N	InChI=1S/C14H23NO12/c1-3(17)15-5-7(19)6(18)4(2-16)25-14(5)27-10-8(20)9(21)13(24)26-11(10)12(22)23/h4-11,13-14,16,18-21,24H,2H2,1H3,(H,15,17)(H,22,23)/t4-,5-,6-,7-,8-,9-,10+,11+,13-,14+/m1/s1	CC(=O)N[C@@H]1[C@@H](O)[C@H](O)[C@@H](CO)O[C@H]1O[C@H]1[C@H](O)[C@@H](O)[C@H](O)O[C@@H]1C([O-])=O
LLVVMXFNKAHVEZ-SJJWUPISSA-N	InChI=1S/C12H16O12/c13-2-1-3(9(17)18)22-12(4(2)14)24-7-5(15)6(16)11(21)23-8(7)10(19)20/h1-2,4-8,11-16,21H,(H,17,18)(H,19,20)/t2-,4-,5+,6-,7-,8?,11+,12-/m0/s1	O[C@@H]1OC([C@@H](O[C@@H]2OC(=C[C@H](O)[C@@H]2O)C(O)=O)[C@H](O)[C@@H]1O)C(O)=O
RQFQJYYMBWVMQG-IXDPLRRUSA-N	InChI=1S/C18H35N3O13/c19-7-12(27)14(5(2-23)30-16(7)29)33-18-9(21)13(28)15(6(3-24)32-18)34-17-8(20)11(26)10(25)4(1-22)31-17/h4-18,22-29H,1-3,19-21H2/t4-,5-,6-,7-,8-,9-,10-,11-,12-,13-,14-,15-,16-,17+,18+/m1/s1	N[C@H]1[C@H](O)O[C@H](CO)[C@@H](O[C@@H]2O[C@H](CO)[C@@H](O[C@@H]3O[C@H](CO)[C@@H](O)[C@H](O)[C@H]3N)[C@H](O)[C@H]2N)[C@@H]1O
VWFJDQUYCIWHTN-FBXUGWQNSA-N	InChI=1S/C15H28O7P2/c1-13(2)7-5-8-14(3)9-6-10-15(4)11-12-21-24(19,20)22-23(16,17)18/h7,9,11H,5-6,8,10,12H2,1-4H3,(H,19,20)(H2,16,17,18)/b14-9-,15-11-	CC(C)=CCC\C(C)=C/CC\C(C)=C/COP(O)(=O)OP(O)(O)=O
AGLXCEGQRIYVRV-DCNFWXCGSA-N	InChI=1S/C31H55O9P/c1-22(2)11-7-12-23(3)13-8-14-24(4)15-9-16-25(5)17-10-18-26(6)19-20-38-41(36,37)40-31-30(35)29(34)28(33)27(21-32)39-31/h11,13,15,17,26-35H,7-10,12,14,16,18-21H2,1-6H3,(H,36,37)/b23-13+,24-15+,25-17-/t26?,27-,28-,29+,30+,31+/m1/s1	CC(CCOP(O)(=O)O[C@@H]1O[C@H](CO)[C@@H](O)[C@H](O)[C@@H]1O)CC\C=C(\C)CC\C=C(/C)CC\C=C(/C)CCC=C(C)C
QNWDPUAQSUCTOR-SHADHPJFSA-N	InChI=1S/C30H53O8P/c1-22(2)11-7-12-23(3)13-8-14-24(4)15-9-16-25(5)17-10-18-26(6)19-20-37-39(34,35)38-30-29(33)28(32)27(31)21-36-30/h11,13,15,17,26-33H,7-10,12,14,16,18-21H2,1-6H3,(H,34,35)/b23-13+,24-15+,25-17-/t26?,27-,28+,29-,30+/m1/s1	CC(CCOP(O)(=O)O[C@@H]1OC[C@@H](O)[C@H](O)[C@H]1O)CC\C=C(\C)CC\C=C(/C)CC\C=C(/C)CCC=C(C)C
CMBCFQGXXHOGEH-WXORXOHISA-N	InChI=1S/C47H82N2O22P2/c1-26(2)13-9-14-27(3)15-10-16-28(4)17-11-18-29(5)19-12-20-30(6)21-22-64-72(60,61)71-73(62,63)70-46-37(49-32(8)54)40(57)43(35(25-52)67-46)68-45-36(48-31(7)53)39(56)44(34(24-51)66-45)69-47-42(59)41(58)38(55)33(23-50)65-47/h13,15,17,19,30,33-47,50-52,55-59H,9-12,14,16,18,20-25H2,1-8H3,(H,48,53)(H,49,54)(H,60,61)(H,62,63)/b27-15+,28-17+,29-19-/t30?,33-,34-,35-,36-,37-,38-,39-,40-,41+,42+,43-,44-,45+,46-,47-/m1/s1	CC(CCOP(O)(=O)OP(O)(=O)O[C@H]1O[C@H](CO)[C@@H](O[C@@H]2O[C@H](CO)[C@@H](O[C@H]3O[C@H](CO)[C@@H](O)[C@H](O)[C@@H]3O)[C@H](O)[C@H]2NC(C)=O)[C@H](O)[C@H]1NC(C)=O)CC\C=C(\C)CC\C=C(/C)CC\C=C(/C)CCC=C(C)C
BLMIGVQIUUGRMY-UHFFFAOYSA-N	InChI=1S/C3H8N2O/c1-3(6)5-2-4/h2,4H2,1H3,(H,5,6)	CC(=O)NCN
AVJBPWGFOQAPRH-MMPMEFKSSA-N	InChI=1S/C14H23NO15S/c1-3(17)15-5-10(9(30-31(24,25)26)4(2-16)27-13(5)23)28-14-8(20)6(18)7(19)11(29-14)12(21)22/h4-11,13-14,16,18-20,23H,2H2,1H3,(H,15,17)(H,21,22)(H,24,25,26)/t4-,5-,6+,7+,8-,9+,10-,11+,13-,14-/m1/s1	[H]O[C@@H]1O[C@H](CO)[C@H](OS(O)(=O)=O)[C@H](O[C@@H]2O[C@@H]([C@@H](O)[C@H](O)[C@H]2O)C(O)=O)[C@H]1NC(C)=O
HMCUNCSRFXXUOR-YHCGEDBISA-N	InChI=1S/C14H23NO15S/c1-3(16)15-5-10(6(17)4(28-13(5)23)2-27-31(24,25)26)29-14-9(20)7(18)8(19)11(30-14)12(21)22/h4-11,13-14,17-20,23H,2H2,1H3,(H,15,16)(H,21,22)(H,24,25,26)/t4-,5-,6+,7+,8+,9-,10-,11+,13-,14-/m1/s1	[H]O[C@@H]1O[C@H](COS(O)(=O)=O)[C@H](O)[C@H](O[C@@H]2O[C@@H]([C@@H](O)[C@H](O)[C@H]2O)C(O)=O)[C@H]1NC(C)=O
JVLAJUCFVRPDAQ-FMIVXFBMSA-N	InChI=1S/C18H24O4/c1-11(2)7-6-8-12(3)9-10-14-13(4)15(19)17(21)18(22-5)16(14)20/h7,9,21H,6,8,10H2,1-5H3/b12-9+	COC1=C(O)C(=O)C(C)=C(C\C=C(/C)CCC=C(C)C)C1=O
BOLRFGHAQSWKGO-QYNIQEEDSA-N	InChI=1S/C9H19N2O8P/c1-5(10)8(13)11-6(2)9(14)19-7(3-12)4-18-20(15,16)17/h5-7,12H,3-4,10H2,1-2H3,(H,11,13)(H2,15,16,17)/t5-,6-,7+/m1/s1	[H]OC[C@@H](COP(O)(O)=O)OC(=O)[C@@H](C)NC(=O)[C@@H](C)N
HKFHKFTYNQVIHQ-MDWZMJQESA-N	InChI=1S/C18H24O4/c1-12(2)6-5-7-13(3)8-9-14-10-15(18(20)21)11-16(22-4)17(14)19/h6,8,10-11,19H,5,7,9H2,1-4H3,(H,20,21)/b13-8+	COc1cc(cc(C\C=C(/C)CCC=C(C)C)c1O)C(O)=O
JOINUXSTSJWDMM-LBOHFPEDSA-N	InChI=1S/C39H66N8O20/c1-15(32(55)43-17(3)36(59)60)42-35(58)21(9-7-8-12-40)46-25(52)11-10-22(37(61)62)47-33(56)16(2)41-34(57)18(4)64-31-27(45-20(6)51)38(63)65-24(14-49)30(31)67-39-26(44-19(5)50)29(54)28(53)23(13-48)66-39/h15-18,21-24,26-31,38-39,48-49,53-54,63H,7-14,40H2,1-6H3,(H,41,57)(H,42,58)(H,43,55)(H,44,50)(H,45,51)(H,46,52)(H,47,56)(H,59,60)(H,61,62)/t15-,16+,17-,18-,21+,22-,23-,24-,26-,27-,28-,29-,30-,31-,38-,39+/m1/s1	[H]O[C@H]1[C@H](O)[C@@H](NC(C)=O)[C@H](O[C@@H]2[C@@H](CO)O[C@@H](O)[C@H](NC(C)=O)[C@H]2O[C@H](C)C(=O)N[C@@H](C)C(=O)N[C@H](CCC(=O)N[C@@H](CCCCN)C(=O)N[C@H](C)C(=O)N[C@H](C)C(O)=O)C(O)=O)O[C@@H]1CO
AVJBPWGFOQAPRH-FWMKGIEWSA-N	InChI=1S/C14H23NO15S/c1-3(17)15-5-10(9(30-31(24,25)26)4(2-16)27-13(5)23)28-14-8(20)6(18)7(19)11(29-14)12(21)22/h4-11,13-14,16,18-20,23H,2H2,1H3,(H,15,17)(H,21,22)(H,24,25,26)/t4-,5-,6+,7+,8-,9+,10-,11-,13-,14-/m1/s1	[H]O[C@@H]1O[C@H](CO)[C@H](OS(O)(=O)=O)[C@H](O[C@@H]2O[C@H]([C@@H](O)[C@H](O)[C@H]2O)C(O)=O)[C@H]1NC(C)=O
WHUUTDBJXJRKMK-UHFFFAOYSA-N	InChI=1S/C5H9NO4/c6-3(5(9)10)1-2-4(7)8/h3H,1-2,6H2,(H,7,8)(H,9,10)	[H]NC(CCC(O)=O)C(O)=O
JAXHHZAWQAGVNS-BCMGMHEASA-N	InChI=1S/C18H32N2O24S3/c19-5-8(23)7(22)3(1-21)40-17(5)42-12-10(25)13(44-47(35,36)37)18(43-14(12)15(26)27)41-11-4(2-38-46(32,33)34)39-16(28)6(9(11)24)20-45(29,30)31/h3-14,16-18,20-25,28H,1-2,19H2,(H,26,27)(H,29,30,31)(H,32,33,34)(H,35,36,37)/t3-,4-,5-,6-,7-,8-,9-,10+,11-,12+,13-,14-,16+,17-,18-/m1/s1	N[C@@H]1[C@@H](O)[C@H](O)[C@@H](CO)O[C@@H]1O[C@H]1[C@H](O)[C@@H](OS(O)(=O)=O)[C@H](O[C@H]2[C@H](O)[C@@H](NS(O)(=O)=O)[C@@H](O)O[C@@H]2COS(O)(=O)=O)O[C@H]1C(O)=O
KNKWELGWBDSUOG-PNRHKHKDSA-N	InChI=1S/C12H21NO14S/c14-1-2-8(4(15)3(11(21)25-2)13-28(22,23)24)26-12-7(18)5(16)6(17)9(27-12)10(19)20/h2-9,11-18,21H,1H2,(H,19,20)(H,22,23,24)/t2-,3-,4-,5+,6+,7-,8-,9-,11+,12-/m1/s1	[H]O[C@H]1O[C@H](CO)[C@@H](O[C@@H]2O[C@H]([C@@H](O)[C@H](O)[C@H]2O)C(O)=O)[C@H](O)[C@H]1NS(O)(=O)=O
BJAFYRSZBSGAET-QQFUYBAXSA-N	InChI=1S/C33H58NO9P/c1-23(2)12-8-13-24(3)14-9-15-25(4)16-10-17-26(5)18-11-19-27(6)20-21-41-44(39,40)43-33-30(34-28(7)36)32(38)31(37)29(22-35)42-33/h12,14,16,18,27,29-33,35,37-38H,8-11,13,15,17,19-22H2,1-7H3,(H,34,36)(H,39,40)/b24-14+,25-16+,26-18-/t27?,29-,30-,31-,32-,33-/m1/s1	CC(CCOP(O)(=O)O[C@H]1O[C@H](CO)[C@@H](O)[C@H](O)[C@H]1NC(C)=O)CC\C=C(\C)CC\C=C(/C)CC\C=C(/C)CCC=C(C)C
CVGGAOGCVJSXBB-XMDCDNQBSA-N	InChI=1S/C12H26O16P2/c13-1-6(15)3-25-30(22,23)26-5-7(4-24-29(19,20)21)27-12-11(18)10(17)9(16)8(2-14)28-12/h6-18H,1-5H2,(H,22,23)(H2,19,20,21)/t6?,7?,8-,9-,10+,11-,12+/m1/s1	OCC(O)COP(O)(=O)OCC(COP(O)(O)=O)O[C@H]1O[C@H](CO)[C@@H](O)[C@H](O)[C@H]1O
GJZLZMVQYJZMIO-KPKJPENVSA-N	InChI=1S/C17H22O4/c1-11(2)5-4-6-12(3)7-8-13-9-14(17(20)21)10-15(18)16(13)19/h5,7,9-10,18-19H,4,6,8H2,1-3H3,(H,20,21)/b12-7+	CC(C)=CCC\C(C)=C\Cc1cc(cc(O)c1O)C(O)=O
JPCGABBYVSDYMQ-UHNVWZDZSA-N	InChI=1S/C6H14NO7P/c1-4(7)6(9)14-5(2-8)3-13-15(10,11)12/h4-5,8H,2-3,7H2,1H3,(H2,10,11,12)/t4-,5+/m1/s1	[H]OC[C@@H](COP(O)(O)=O)OC(=O)[C@@H](C)N
QQXGKDXDGRCOKW-GVQSQGETSA-N	InChI=1S/C42H73O39P/c43-1-8-15(48)23(56)29(62)37(71-8)77-32-21(54)12(5-47)73-39(31(32)64)78-34-26(59)18(51)11(4-46)75-41(34)80-33-25(58)17(50)10(3-45)74-40(33)68-6-13-20(53)27(60)35(79-38-30(63)24(57)16(49)9(2-44)72-38)42(76-13)81-82(66,67)69-7-14-19(52)22(55)28(61)36(65)70-14/h8-65H,1-7H2,(H,66,67)/t8-,9-,10-,11-,12-,13-,14-,15-,16-,17-,18-,19-,20-,21-,22+,23+,24+,25+,26+,27+,28+,29+,30+,31+,32+,33+,34+,35+,36+,37-,38-,39-,40+,41-,42-/m1/s1	OC[C@H]1O[C@H](O[C@H]2[C@H](O)[C@@H](CO)O[C@H](O[C@H]3[C@@H](O)[C@H](O)[C@@H](CO)O[C@@H]3O[C@H]3[C@@H](O)[C@H](O)[C@@H](CO)O[C@@H]3OC[C@H]3O[C@H](OP(O)(=O)OC[C@H]4O[C@H](O)[C@@H](O)[C@@H](O)[C@@H]4O)[C@@H](O[C@H]4O[C@H](CO)[C@@H](O)[C@H](O)[C@@H]4O)[C@@H](O)[C@@H]3O)[C@H]2O)[C@@H](O)[C@@H](O)[C@@H]1O
AROVEDSNJVIDDK-KZLBPRFTSA-N	InChI=1S/C16H29O9P/c1-10(2)5-4-6-11(3)7-8-23-26(21,22)25-16-15(20)14(19)13(18)12(9-17)24-16/h5,7,12-20H,4,6,8-9H2,1-3H3,(H,21,22)/b11-7+/t12-,13-,14+,15-,16+/m1/s1	CC(C)=CCC\C(C)=C\COP(O)(=O)O[C@@H]1O[C@H](CO)[C@@H](O)[C@H](O)[C@H]1O
CZGHBUVBOFUUCZ-GDDMVZOWSA-N	InChI=1S/C27H37N9O19P2/c28-13-1-4-34(25(42)31-13)22-17(39)16(38)11(52-22)8-49-56(45,46)55-21-12(53-24(19(21)41)36-6-3-15(30)33-27(36)44)9-50-57(47,48)54-20-10(7-37)51-23(18(20)40)35-5-2-14(29)32-26(35)43/h1-6,10-12,16-24,37-41H,7-9H2,(H,45,46)(H,47,48)(H2,28,31,42)(H2,29,32,43)(H2,30,33,44)/t10-,11-,12-,16-,17-,18-,19-,20-,21-,22-,23-,24-/m1/s1	Nc1ccn([C@@H]2O[C@H](COP(O)(=O)O[C@@H]3[C@@H](COP(O)(=O)O[C@@H]4[C@@H](CO)O[C@H]([C@@H]4O)n4ccc(N)nc4=O)O[C@H]([C@@H]3O)n3ccc(N)nc3=O)[C@@H](O)[C@H]2O)c(=O)n1
PHYYADMVYQURSX-GEINXPCQSA-N	InChI=1S/C11H21NO10S3/c1-24(17)4-2-3-7(12-22-25(18,19)20)23-11-10(16)9(15)8(14)6(5-13)21-11/h6,8-11,13-16H,2-5H2,1H3,(H,18,19,20)/t6-,8-,9+,10-,11+,24?/m1/s1	CS(=O)CCCC(S[C@@H]1O[C@H](CO)[C@@H](O)[C@H](O)[C@H]1O)=NOS([O-])(=O)=O
KBMBVTRWEAAZEY-UHFFFAOYSA-N	InChI=1S/H2S3/c1-3-2/h1-2H	SSS
YCEYFMFATQTSRQ-SKRGZLQOSA-N	InChI=1S/C135H220N16O49P2/c1-71(2)37-25-38-72(3)39-26-40-73(4)41-27-42-74(5)43-28-44-75(6)45-29-46-76(7)47-30-48-77(8)49-31-50-78(9)51-32-52-79(10)53-33-54-80(11)55-34-56-81(12)65-66-189-201(185,186)200-202(187,188)199-135-109(147-93(24)159)117(191-89(20)123(170)139-85(16)121(168)151-99(131(183)184)62-64-105(161)149-97(60-36-58-95(137)129(179)180)125(172)141-83(14)119(166)143-87(18)127(175)176)115(103(70-155)195-135)198-133-107(145-91(22)157)112(164)113(101(68-153)193-133)196-134-108(146-92(23)158)116(114(102(69-154)194-134)197-132-106(144-90(21)156)111(163)110(162)100(67-152)192-132)190-88(19)122(169)138-84(15)120(167)150-98(130(181)182)61-63-104(160)148-96(59-35-57-94(136)128(177)178)124(171)140-82(13)118(165)142-86(17)126(173)174/h37,39,41,43,45,47,49,51,53,55,65,82-89,94-103,106-117,132-135,152-155,162-164H,25-36,38,40,42,44,46,48,50,52,54,56-64,66-70,136-137H2,1-24H3,(H,138,169)(H,139,170)(H,140,171)(H,141,172)(H,142,165)(H,143,166)(H,144,156)(H,145,157)(H,146,158)(H,147,159)(H,148,160)(H,149,161)(H,150,167)(H,151,168)(H,173,174)(H,175,176)(H,177,178)(H,179,180)(H,181,182)(H,183,184)(H,185,186)(H,187,188)/b72-39+,73-41+,74-43-,75-45-,76-47-,77-49-,78-51-,79-53-,80-55-,81-65-/t82-,83-,84+,85+,86-,87-,88-,89-,94-,95-,96+,97+,98-,99-,100-,101-,102-,103-,106-,107-,108-,109-,110-,111-,112-,113-,114-,115-,116-,117-,132+,133+,134+,135-/m1/s1	[H]O[C@H]1[C@H](O)[C@@H](NC(C)=O)[C@H](O[C@@H]2[C@@H](CO)O[C@@H](O[C@H]3[C@H](O)[C@@H](NC(C)=O)[C@H](O[C@@H]4[C@@H](CO)O[C@H](OP(O)(=O)OP(O)(=O)OC\C=C(\C)CC\C=C(\C)CC\C=C(\C)CC\C=C(\C)CC\C=C(\C)CC\C=C(\C)CC\C=C(\C)CC\C=C(\C)CC\C=C(/C)CC\C=C(/C)CCC=C(C)C)[C@H](NC(C)=O)[C@H]4O[C@H](C)C(=O)N[C@@H](C)C(=O)N[C@H](CCC(=O)N[C@@H](CCC[C@@H](N)C(O)=O)C(=O)N[C@H](C)C(=O)N[C@H](C)C(O)=O)C(O)=O)O[C@@H]3CO)[C@H](NC(C)=O)[C@H]2O[C@H](C)C(=O)N[C@@H](C)C(=O)N[C@H](CCC(=O)N[C@@H](CCC[C@@H](N)C(O)=O)C(=O)N[C@H](C)C(=O)N[C@H](C)C(O)=O)C(O)=O)O[C@@H]1CO
PIYUVGVHLGPKAU-LQKVTMEASA-N	InChI=1S/C133H220N16O45P2/c1-73(2)39-29-40-74(3)41-30-42-75(4)43-31-44-76(5)45-32-46-77(6)47-33-48-78(7)49-34-50-79(8)51-35-52-80(9)53-36-54-81(10)55-37-56-82(11)57-38-58-83(12)65-68-183-195(179,180)194-196(181,182)193-133-109(145-95(24)157)117(185-91(20)123(168)137-87(16)121(166)149-99(129(177)178)62-64-105(159)147-97(60-26-28-67-135)125(170)139-85(14)119(164)141-89(18)127(173)174)115(103(72-153)189-133)192-131-107(143-93(22)155)112(162)113(101(70-151)187-131)190-132-108(144-94(23)156)116(114(102(71-152)188-132)191-130-106(142-92(21)154)111(161)110(160)100(69-150)186-130)184-90(19)122(167)136-86(15)120(165)148-98(128(175)176)61-63-104(158)146-96(59-25-27-66-134)124(169)138-84(13)118(163)140-88(17)126(171)172/h39,41,43,45,47,49,51,53,55,57,65,84-91,96-103,106-117,130-133,150-153,160-162H,25-38,40,42,44,46,48,50,52,54,56,58-64,66-72,134-135H2,1-24H3,(H,136,167)(H,137,168)(H,138,169)(H,139,170)(H,140,163)(H,141,164)(H,142,154)(H,143,155)(H,144,156)(H,145,157)(H,146,158)(H,147,159)(H,148,165)(H,149,166)(H,171,172)(H,173,174)(H,175,176)(H,177,178)(H,179,180)(H,181,182)/b74-41+,75-43+,76-45-,77-47-,78-49-,79-51-,80-53-,81-55-,82-57-,83-65-/t84-,85-,86+,87+,88-,89-,90-,91-,96+,97+,98-,99-,100-,101-,102-,103-,106-,107-,108-,109-,110-,111-,112-,113-,114-,115-,116-,117-,130+,131+,132+,133-/m1/s1	[H]O[C@H]1[C@H](O)[C@@H](NC(C)=O)[C@H](O[C@@H]2[C@@H](CO)O[C@@H](O[C@H]3[C@H](O)[C@@H](NC(C)=O)[C@H](O[C@@H]4[C@@H](CO)O[C@H](OP(O)(=O)OP(O)(=O)OC\C=C(\C)CC\C=C(\C)CC\C=C(\C)CC\C=C(\C)CC\C=C(\C)CC\C=C(\C)CC\C=C(\C)CC\C=C(\C)CC\C=C(/C)CC\C=C(/C)CCC=C(C)C)[C@H](NC(C)=O)[C@H]4O[C@H](C)C(=O)N[C@@H](C)C(=O)N[C@H](CCC(=O)N[C@@H](CCCCN)C(=O)N[C@H](C)C(=O)N[C@H](C)C(O)=O)C(O)=O)O[C@@H]3CO)[C@H](NC(C)=O)[C@H]2O[C@H](C)C(=O)N[C@@H](C)C(=O)N[C@H](CCC(=O)N[C@@H](CCCCN)C(=O)N[C@H](C)C(=O)N[C@H](C)C(O)=O)C(O)=O)O[C@@H]1CO
KNKWELGWBDSUOG-OYQIKJLFSA-N	InChI=1S/C12H21NO14S/c14-1-2-8(4(15)3(11(21)25-2)13-28(22,23)24)26-12-7(18)5(16)6(17)9(27-12)10(19)20/h2-9,11-18,21H,1H2,(H,19,20)(H,22,23,24)/t2-,3-,4-,5+,6+,7-,8-,9+,11+,12-/m1/s1	[H]O[C@H]1O[C@H](CO)[C@@H](O[C@@H]2O[C@@H]([C@@H](O)[C@H](O)[C@H]2O)C(O)=O)[C@H](O)[C@H]1NS(O)(=O)=O
XEABSBMNTNXEJM-UHFFFAOYSA-N	InChI=1S/C6H10Ge2O7/c9-5(10)1-3-7(13)15-8(14)4-2-6(11)12/h1-4H2,(H,9,10)(H,11,12)	[O-]C(=O)CC[Ge](=O)O[Ge](=O)CCC([O-])=O
VOIZNVUXCQLQHS-UHFFFAOYSA-N	InChI=1S/C7H5BrO2/c8-6-3-1-2-5(4-6)7(9)10/h1-4H,(H,9,10)	[O-]C(=O)c1cccc(Br)c1
